&input
  name = 'H₂O⁺ - Transition Moments',
  ipol = 2, ! controls calculation of dipole polarizabilities, 0 = no calculation
  ntgt = 3, ! number of CSF expansions used, this is the number of different output files to be read
  nftsor = 720,721,722, ! unit numbers with output from CONGEN
  nftg  = 26,      ! target eigenvector unit
  ntgtf = 1,2,3, ! defines the set number, on unit NFTG where the CI vectors for this symmetry are to be found.
  ntgtl = 1,1,1, ! defines the sequence number, within the set specified by NTGTF, of the last CI vector to be used
  npflg(9) = 1, ! prints computed moments
  zlast = .true., ! when set to .true. identifies that this card deck is the last in the stack of &INPUT decks.
  ukrmolp_ints = .true., ! commented out if you do not run UKRmol+ suite
/
