         0.10827E+02          0.00000E+00
         0.10927E+02          0.33136E+01
         0.11027E+02          0.33596E+01
         0.11127E+02          0.34046E+01
         0.11227E+02          0.34477E+01
         0.11327E+02          0.34964E+01
         0.11427E+02          0.35445E+01
         0.11527E+02          0.35909E+01
         0.11627E+02          0.36420E+01
         0.11727E+02          0.36932E+01
         0.11827E+02          0.37430E+01
         0.11927E+02          0.37967E+01
         0.12027E+02          0.58787E+01
         0.12127E+02          0.60637E+01
         0.12227E+02          0.62639E+01
         0.12327E+02          0.64519E+01
         0.12427E+02          0.66357E+01
         0.12527E+02          0.67947E+01
         0.12627E+02          0.70197E+01
         0.12727E+02          0.71980E+01
         0.12827E+02          0.73547E+01
         0.12927E+02          0.75698E+01
         0.13027E+02          0.77403E+01
         0.13127E+02          0.78933E+01
         0.13227E+02          0.80951E+01
         0.13327E+02          0.82571E+01
         0.13427E+02          0.84058E+01
         0.13527E+02          0.85929E+01
         0.13627E+02          0.87467E+01
         0.13727E+02          0.88908E+01
         0.13827E+02          0.90637E+01
         0.13927E+02          0.92100E+01
         0.14027E+02          0.93495E+01
         0.14127E+02          0.95092E+01
         0.14227E+02          0.96488E+01
         0.14327E+02          0.97836E+01
         0.14427E+02          0.99318E+01
         0.14527E+02          0.10065E+02
         0.14627E+02          0.10195E+02
         0.14727E+02          0.10333E+02
         0.14827E+02          0.10461E+02
         0.14927E+02          0.10587E+02
         0.15027E+02          0.10716E+02
         0.15127E+02          0.10835E+02
         0.15227E+02          0.10953E+02
         0.15327E+02          0.11073E+02
         0.15427E+02          0.11188E+02
         0.15527E+02          0.11302E+02
         0.15627E+02          0.11415E+02
         0.15727E+02          0.11525E+02
         0.15827E+02          0.11634E+02
         0.15927E+02          0.11741E+02
         0.16027E+02          0.11846E+02
         0.16127E+02          0.11950E+02
         0.16227E+02          0.12051E+02
         0.16327E+02          0.12150E+02
         0.16427E+02          0.12247E+02
         0.16527E+02          0.12342E+02
         0.16627E+02          0.12435E+02
         0.16727E+02          0.12526E+02
         0.16827E+02          0.12615E+02
         0.16927E+02          0.12702E+02
         0.17027E+02          0.12787E+02
         0.17127E+02          0.12871E+02
         0.17227E+02          0.12952E+02
         0.17327E+02          0.13032E+02
         0.17427E+02          0.13109E+02
         0.17527E+02          0.13185E+02
         0.17627E+02          0.13258E+02
         0.17727E+02          0.13330E+02
         0.17827E+02          0.13400E+02
         0.17927E+02          0.13468E+02
         0.18027E+02          0.13534E+02
         0.18127E+02          0.13599E+02
         0.18227E+02          0.13661E+02
         0.18327E+02          0.13722E+02
         0.18427E+02          0.13781E+02
         0.18527E+02          0.13838E+02
         0.18627E+02          0.13894E+02
         0.18727E+02          0.13948E+02
         0.18827E+02          0.14000E+02
         0.18927E+02          0.14050E+02
         0.19027E+02          0.14099E+02
         0.19127E+02          0.14147E+02
         0.19227E+02          0.14193E+02
         0.19327E+02          0.14237E+02
         0.19427E+02          0.14280E+02
         0.19527E+02          0.14321E+02
         0.19627E+02          0.14361E+02
         0.19727E+02          0.14399E+02
         0.19827E+02          0.14437E+02
         0.19927E+02          0.14472E+02
         0.20027E+02          0.14507E+02
         0.20127E+02          0.14540E+02
         0.20227E+02          0.14572E+02
         0.20327E+02          0.14603E+02
         0.20427E+02          0.14633E+02
         0.20527E+02          0.14661E+02
         0.20627E+02          0.14689E+02
         0.20727E+02          0.14715E+02
         0.20827E+02          0.14740E+02
         0.20927E+02          0.14764E+02
         0.21027E+02          0.14788E+02
         0.21127E+02          0.14810E+02
         0.21227E+02          0.14831E+02
         0.21327E+02          0.14851E+02
         0.21427E+02          0.14871E+02
         0.21527E+02          0.14889E+02
         0.21627E+02          0.14907E+02
         0.21727E+02          0.14923E+02
         0.21827E+02          0.14939E+02
         0.21927E+02          0.14954E+02
         0.22027E+02          0.14968E+02
         0.22127E+02          0.14981E+02
         0.22227E+02          0.14994E+02
         0.22327E+02          0.15005E+02
         0.22427E+02          0.15016E+02
         0.22527E+02          0.15026E+02
         0.22627E+02          0.15035E+02
         0.22727E+02          0.15043E+02
         0.22827E+02          0.15050E+02
         0.22927E+02          0.15057E+02
         0.23027E+02          0.15063E+02
         0.23127E+02          0.15067E+02
         0.23227E+02          0.15071E+02
         0.23327E+02          0.15075E+02
         0.23427E+02          0.15077E+02
         0.23527E+02          0.15079E+02
         0.23627E+02          0.15079E+02
         0.23727E+02          0.15079E+02
         0.23827E+02          0.15078E+02
         0.23927E+02          0.15076E+02
         0.24027E+02          0.15074E+02
         0.24127E+02          0.15070E+02
         0.24227E+02          0.15066E+02
         0.24327E+02          0.15061E+02
         0.24427E+02          0.15055E+02
         0.24527E+02          0.15048E+02
         0.24627E+02          0.15040E+02
         0.24727E+02          0.15031E+02
         0.24827E+02          0.15022E+02
         0.24927E+02          0.15012E+02
         0.25027E+02          0.15001E+02
         0.25127E+02          0.14989E+02
         0.25227E+02          0.14976E+02
         0.25327E+02          0.14963E+02
         0.25427E+02          0.14948E+02
         0.25527E+02          0.14933E+02
         0.25627E+02          0.14917E+02
         0.25727E+02          0.14901E+02
         0.25827E+02          0.14883E+02
         0.25927E+02          0.14865E+02
         0.26027E+02          0.14846E+02
         0.26127E+02          0.14826E+02
         0.26227E+02          0.14806E+02
         0.26327E+02          0.14784E+02
         0.26427E+02          0.14763E+02
         0.26527E+02          0.14740E+02
         0.26627E+02          0.14716E+02
         0.26727E+02          0.14692E+02
         0.26827E+02          0.14667E+02
         0.26927E+02          0.14642E+02
         0.27027E+02          0.14616E+02
         0.27127E+02          0.14589E+02
         0.27227E+02          0.14561E+02
         0.27327E+02          0.14533E+02
         0.27427E+02          0.14505E+02
         0.27527E+02          0.14475E+02
         0.27627E+02          0.14446E+02
         0.27727E+02          0.14415E+02
         0.27827E+02          0.14385E+02
         0.27927E+02          0.14353E+02
         0.28027E+02          0.14322E+02
         0.28127E+02          0.14290E+02
         0.28227E+02          0.14258E+02
         0.28327E+02          0.14226E+02
         0.28427E+02          0.14193E+02
         0.28527E+02          0.14161E+02
         0.28627E+02          0.14128E+02
         0.28727E+02          0.14096E+02
         0.28827E+02          0.14064E+02
         0.28927E+02          0.14032E+02
         0.29027E+02          0.14001E+02
         0.29127E+02          0.13970E+02
         0.29227E+02          0.13940E+02
         0.29327E+02          0.13911E+02
         0.29427E+02          0.13883E+02
         0.29527E+02          0.13856E+02
         0.29627E+02          0.13830E+02
         0.29727E+02          0.13806E+02
         0.29827E+02          0.13783E+02
         0.29927E+02          0.13762E+02
         0.30027E+02          0.13743E+02
         0.30127E+02          0.13726E+02
         0.30227E+02          0.13711E+02
         0.30327E+02          0.13697E+02
         0.30427E+02          0.13686E+02
         0.30527E+02          0.13678E+02
         0.30627E+02          0.13672E+02
         0.30727E+02          0.13668E+02
