&swintfin
  name      = ' Water photo-ionization ',
  mgvn      = 2,
  stot      = 1,
  nciset    = 3,
  ntarg     = 3,
  idtarg    = 2,1,3,
  rmatr     = 15,
  ukrmolp_ints = .true.,
/
&rslvin
  name      = ' Water photo-ionization ',
  mgvn      = 2,
  stot      = 1,
  newbut    = 0,
  nescat    = 700,
  einc      = 0.1, 0.1,
  ieunit    = 2,
  ikform    = 'F'
! calcak    = 1, !25, !the index of the last cationic state to keep (4b2u state)
  calcdip   = 1,1,3, !calculate dipoles, only one bound state (Ag) from CDENPROP dipoles file, the index of the last cationic state to keep (4b2u state)
! calc_tmat = .true.
! itform    = 'F'
  form_pw_dipoles = 'FORMATTED'
/
&bprop
  raf       = 15,
! ifprop    = -1,
  igail     = 2,
/
&phasin
  name      = ' Water photo-ionization ',
  ieunit    = 2,
  icon      = 1,
  luphso    = 110, !fort.110 = formatted eigenphases; 0=a1
  ikform    = 'F',
/
&tmatin
  name      = ' Water photo-ionization ',
  ikform    = 'F',
  itform    = 'T'
/
&xsecin
  name      = ' Water photo-ionization ',
  ieunit    = 2,
  ixsn      = 2,
  luxsn     = 100, !fort.100 = formatted cross sections; 0=a1
  itform    = 'T'
/
&res                      ! used by RESON_F (see docs/reson)
  name = 'Resonance fits'
  lukmt = 19,             ! file with K-matrix
  lures = 27,
  mgvn = 2,               ! symmetry
  stot = 1,               ! spin multiplicity 2*S+1
  nst = 1,                ! label of scattering state symmetry ???
  ikform = 'F',           ! formatted/unformatted switch for unit LUKMT = 19 (K-matrix)
/
&bprop                    ! read by subroutine ASYM1 called from RESON (see docs/rprop-cfasym) 
  raf = 50.1,             ! radius at which continued fraction method can be used
/
